{
  "buildFiles": [
    "/Users/sunsil/Documents/p1039_red-1/redproject/android/app/src/main/cpp/CMakeLists.txt"
  ],
  "cleanCommands": [
    "/Users/sunsil/Library/Android/sdk/cmake/3.6.4111459/bin/cmake --build /Users/sunsil/Documents/p1039_red-1/redproject/android/app/.externalNativeBuild/cmake/profile/x86_64 --target clean"
  ],
  "libraries": {
    "native-lib-Debug-x86_64": {
      "artifactName": "native-lib",
      "buildCommand": "/Users/sunsil/Library/Android/sdk/cmake/3.6.4111459/bin/cmake --build /Users/sunsil/Documents/p1039_red-1/redproject/android/app/.externalNativeBuild/cmake/profile/x86_64 --target native-lib",
      "abi": "x86_64",
      "output": "/Users/sunsil/Documents/p1039_red-1/redproject/build/app/intermediates/cmake/profile/obj/x86_64/libnative-lib.so"
    },
    "lib_opencv-Debug-x86_64": {
      "artifactName": "lib_opencv",
      "abi": "x86_64",
      "output": "/Users/sunsil/Documents/p1039_red-1/redproject/android/opencv/native/libs/x86_64/libopencv_java4.so"
    }
  }
}